<?xml version="1.0" encoding="utf-8"?>
<!-- Generator: Adobe Illustrator 23.0.3, SVG Export Plug-In . SVG Version: 6.00 Build 0)  -->
<svg version="1.1" id="Layer_1" xmlns="http://www.w3.org/2000/svg" xmlns:xlink="http://www.w3.org/1999/xlink" x="0px" y="0px"
	 viewBox="0 0 18 18" style="enable-background:new 0 0 18 18;" xml:space="preserve">
<style type="text/css">
	.st0{fill:#512E21;}
	.st1{fill:#AB0F3F;}
	.st2{fill-rule:evenodd;clip-rule:evenodd;}
	.st3{fill:url(#SVGID_1_);}
	.st4{fill:url(#SVGID_2_);}
	.st5{fill:url(#SVGID_3_);}
	.st6{fill:#FFFFFF;}
</style>
<path d="M12.375,0h-6.75C2.5188599,0,0,2.5188599,0,5.625v6.75C0,15.4810791,2.5188599,18,5.625,18h6.75
	C15.4811401,18,18,15.4810791,18,12.375v-6.75C18,2.5188599,15.4811401,0,12.375,0z M16.3125,12.375
	c0,2.1712646-1.7662354,3.9375-3.9375,3.9375h-6.75c-2.1712646,0-3.9375-1.7662354-3.9375-3.9375v-6.75
	c0-2.1712646,1.7662354-3.9375,3.9375-3.9375h6.75c2.1712646,0,3.9375,1.7662354,3.9375,3.9375V12.375z M9,4.5
	C6.5148926,4.5,4.5,6.5148315,4.5,9c0,2.4851074,2.0148926,4.5,4.5,4.5s4.5-2.0148926,4.5-4.5C13.5,6.5148315,11.4851074,4.5,9,4.5z
	 M9,11.8125c-1.5502319,0-2.8125-1.2622681-2.8125-2.8125c0-1.5513916,1.2622681-2.8125,2.8125-2.8125S11.8125,7.4486084,11.8125,9
	C11.8125,10.5502319,10.5502319,11.8125,9,11.8125z M14.4371338,4.1624756c0,0.3311768-0.2684937,0.5996094-0.5996094,0.5996094
	c-0.3311768,0-0.5996704-0.2684326-0.5996704-0.5996094s0.2684937-0.5996094,0.5996704-0.5996094
	C14.1686401,3.5628662,14.4371338,3.8312988,14.4371338,4.1624756z"/>
</svg>
