<?xml version="1.0" encoding="utf-8"?>
<!-- Generator: Adobe Illustrator 23.0.3, SVG Export Plug-In . SVG Version: 6.00 Build 0)  -->
<svg version="1.1" id="Layer_1" xmlns="http://www.w3.org/2000/svg" xmlns:xlink="http://www.w3.org/1999/xlink" x="0px" y="0px"
	 viewBox="0 0 20.0000076 21" style="enable-background:new 0 0 20.0000076 21;" xml:space="preserve">
<style type="text/css">
	.st0{fill:#512E21;}
	.st1{fill:#AB0F3F;}
	.st2{fill-rule:evenodd;clip-rule:evenodd;}
	.st3{fill:url(#SVGID_1_);}
	.st4{fill:url(#SVGID_2_);}
	.st5{fill:url(#SVGID_3_);}
	.st6{fill:#FFFFFF;}
</style>
<path d="M19.890686,20.3287964l-5.8270874-6.1268311c1.4863281-1.507019,2.4071045-3.5845947,2.4071045-5.8758545
	C16.4707031,3.7348633,12.7765503,0,8.2353516,0S0,3.7348633,0,8.3261108s3.6941528,8.3261108,8.2353516,8.3261108
	c1.9933472,0,3.8227539-0.7203979,5.2486572-1.9158325l5.8411865,6.1419067C19.4020996,20.9595947,19.5048218,21,19.6079712,21
	c0.0980225,0,0.1956787-0.0368652,0.2717285-0.1105957C20.0358276,20.7375488,20.0405273,20.4865723,19.890686,20.3287964z
	 M8.2353516,15.8592529c-4.1086426,0-7.4510498-3.3792114-7.4510498-7.5331421S4.126709,0.7929688,8.2353516,0.7929688
	s7.4509888,3.3792114,7.4509888,7.5331421S12.3436279,15.8592529,8.2353516,15.8592529z"/>
</svg>
