<?xml version="1.0" encoding="utf-8"?>
<!-- Generator: Adobe Illustrator 23.0.3, SVG Export Plug-In . SVG Version: 6.00 Build 0)  -->
<svg version="1.1" id="Layer_1" xmlns="http://www.w3.org/2000/svg" xmlns:xlink="http://www.w3.org/1999/xlink" x="0px" y="0px"
	 viewBox="0 0 55.0000191 15.9999752" style="enable-background:new 0 0 55.0000191 15.9999752;" xml:space="preserve">
<style type="text/css">
	.st0{fill:#512E21;}
	.st1{fill:#AB0F3F;}
	.st2{fill-rule:evenodd;clip-rule:evenodd;}
	.st3{fill:url(#SVGID_1_);}
	.st4{fill:url(#SVGID_2_);}
	.st5{fill:url(#SVGID_3_);}
	.st6{fill:#FFFFFF;}
</style>
<path d="M54.9994621,7.9796023c-0.0003052-0.0094604-0.0010376-0.0189209-0.0020752-0.0283203
	c-0.0003052-0.0029907-0.0004272-0.0060425-0.0008545-0.0090332c-0.0016479-0.0127563-0.0041504-0.0253906-0.007019-0.0379639
	c-0.0003052-0.0014648-0.0007324-0.0029297-0.0010986-0.0044556c-0.0181274-0.0754395-0.0577393-0.1463623-0.1174316-0.2034302
	l-7.9002686-7.5782471c-0.1743164-0.161499-0.4522095-0.1568604-0.6206055,0.010376
	c-0.038147,0.0379028-0.0670776,0.0811157-0.0875244,0.1269531c-0.0002441,0.0005493-0.0005493,0.0010986-0.0007935,0.001709
	c-0.0050659,0.0114136-0.0094604,0.0230103-0.0133667,0.034729c-0.0004883,0.0014038-0.0010376,0.0027466-0.0015259,0.0042114
	c-0.003418,0.0106812-0.0063477,0.0215454-0.0088501,0.0324707c-0.0006104,0.0025024-0.0013428,0.0049438-0.0018921,0.0074463
	c-0.0020752,0.0096436-0.00354,0.0192871-0.0048828,0.0289917c-0.0005493,0.0039063-0.0012817,0.0078125-0.00177,0.0117188
	c-0.0008545,0.0080566-0.0012207,0.0161743-0.0015869,0.024231c-0.0003052,0.0056152-0.0007935,0.0112305-0.0008545,0.0168457
	c-0.000061,0.0060425,0.0003662,0.0120239,0.0005493,0.0180664c0.0003052,0.0076904,0.0004272,0.0153198,0.0011597,0.0230103
	c0.0003052,0.003479,0.0009766,0.006897,0.0013428,0.010376c0.0012207,0.0101318,0.0025024,0.0202637,0.0044556,0.0302734
	c0.0001221,0.0003662,0.0001831,0.0007325,0.0003052,0.0010987c0.0153198,0.0778198,0.0535278,0.1524658,0.1152344,0.2136841
	l7.1514282,6.8590698H0.4388552c-0.1547241,0.000061-0.2905884,0.0768433-0.3687744,0.1928101
	C0.0695925,7.7669559,0.0690432,7.7676272,0.0685549,7.7682986C0.0603152,7.7807498,0.0529299,7.7937503,0.046033,7.807056
	C0.0379153,7.8226199,0.03053,7.8386111,0.0244876,7.8552737C0.0240603,7.8564944,0.0236941,7.8577762,0.0232669,7.8590579
	c-0.005249,0.0147705-0.0094604,0.0300293-0.0129395,0.0454712C0.0080691,7.9144168,0.006177,7.9244266,0.0047122,7.9345584
	C0.0021487,7.9514041,0.0003787,7.9684939,0.0000125,7.985889c-0.000061,0.0018921,0.0001221,0.0038452,0.0001221,0.0057373
	C0.0000125,8.0120115,0.0012332,8.0327024,0.0042239,8.0536985c0.00177,0.0124512,0.0040283,0.0249634,0.006958,0.0375977
	c0.0025024,0.0108643,0.0056152,0.0217896,0.0090332,0.0327759c0.0003662,0.0010986,0.0005493,0.0021362,0.0008545,0.0032349
	c0.0020142,0.0061646,0.0045166,0.0123901,0.0068359,0.0185547C0.0300418,8.151782,0.0318728,8.1576414,0.0343142,8.1635618
	c0.034729,0.0847168,0.097168,0.1707153,0.1936035,0.2519531h53.2736206l-7.1514282,6.8590698
	c-0.0110474,0.0105591-0.0213623,0.0217285-0.0310669,0.0332642c-0.1623535,0.1862183-0.1314087,0.4767456,0.0977783,0.62323
	c0.1708984,0.1091318,0.3964233,0.0859995,0.5440674-0.0508423c0.0036621-0.0033569,0.0072021-0.0067749,0.0107422-0.0103149
	l7.9002686-7.578186c0.0003052-0.0003052,0.0005493-0.0006104,0.0008545-0.0009155
	c0.0078125-0.0075684,0.0150757-0.015625,0.0222778-0.0236816c0.0019531-0.0021973,0.0040894-0.0042114,0.0059814-0.0064697
	c0.0310059-0.036377,0.0554199-0.0779419,0.0724487-0.1229858c0.0020142-0.0053101,0.0040283-0.0106201,0.0057983-0.0159912
	c0.0020752-0.0061646,0.0039063-0.0123901,0.0056152-0.0186768c0.001709-0.0061035,0.0032349-0.012207,0.0046387-0.0183716
	c0.0012817-0.0057373,0.0026855-0.0114746,0.0037231-0.0172729c0.0020752-0.0112915,0.0037231-0.022644,0.0048218-0.0339966
	c0.0004272-0.0042114,0.0004883-0.0084839,0.0007935-0.0127563c0.0005493-0.008667,0.0008545-0.017395,0.0008545-0.0260615
	c0-0.0026855,0.0003662-0.005249,0.0003052-0.0079346C54.9999504,7.984241,54.9995842,7.9819827,54.9994621,7.9796023z"/>
</svg>
