<?xml version="1.0" encoding="utf-8"?>
<!-- Generator: Adobe Illustrator 23.0.3, SVG Export Plug-In . SVG Version: 6.00 Build 0)  -->
<svg version="1.1" id="Layer_1" xmlns="http://www.w3.org/2000/svg" xmlns:xlink="http://www.w3.org/1999/xlink" x="0px" y="0px"
	 viewBox="0 0 223 46" style="enable-background:new 0 0 223 46;" xml:space="preserve">
<style type="text/css">
	.st0{fill:#512E21;}
	.st1{fill:#AB0F3F;}
	.st2{fill-rule:evenodd;clip-rule:evenodd;}
	.st3{fill:url(#SVGID_1_);}
	.st4{fill:url(#SVGID_2_);}
	.st5{fill:url(#SVGID_3_);}
	.st6{fill:#FFFFFF;}
</style>
<g>
	<path class="st0" d="M62.4601135,40.4992752c-0.2308922-0.2385368-0.5039864-0.4253273-0.8185463-0.5597076
		c-0.3145981-0.1343803-0.6559143-0.20224-1.0247269-0.20224c-0.3688087,0-0.710125,0.0678596-1.0247231,0.20224
		c-0.3145599,0.1343803-0.5876541,0.3211708-0.8185883,0.5597076c-0.2308922,0.2385254-0.4109268,0.5207253-0.5414467,0.8486252
		c-0.131218,0.3272171-0.1961327,0.6860161-0.1961327,1.0757256s0.0649147,0.7485085,0.1961327,1.0763931
		c0.1305199,0.3265533,0.3105545,0.6100998,0.5414467,0.8479576c0.2309341,0.2385254,0.5040283,0.4246521,0.8185883,0.5596962
		c0.3145981,0.1343803,0.6559143,0.2022514,1.0247231,0.2022514c0.3688126,0,0.7101288-0.0678711,1.0247269-0.2022514
		c0.3145599-0.1350441,0.5876541-0.3211708,0.8185463-0.5596962c0.2309341-0.2378578,0.4109688-0.5214043,0.5421829-0.8479576
		c0.1304817-0.3278847,0.1954346-0.6866837,0.1954346-1.0763931s-0.0649529-0.7485085-0.1954346-1.0757256
		C62.8710823,41.0200005,62.6910477,40.7378006,62.4601135,40.4992752 M62.5264168,43.2782898
		c-0.0930595,0.2694359-0.228241,0.503933-0.4056168,0.7061844c-0.1773796,0.20224-0.3929138,0.3635025-0.6472549,0.4830971
		c-0.254303,0.1202736-0.5394478,0.1800766-0.8567047,0.1800766c-0.3172531,0-0.6023979-0.059803-0.8567429-0.1800766
		c-0.2542992-0.1195946-0.4698334-0.2808571-0.647213-0.4830971c-0.1773796-0.2022514-0.3125572-0.4367485-0.4056168-0.7061844
		c-0.0930176-0.2687607-0.1398773-0.5529823-0.1398773-0.8506355c0-0.2983284,0.0468597-0.581871,0.1398773-0.8513069
		c0.0930595-0.2687721,0.2282372-0.5059547,0.4056168-0.7095375c0.1773796-0.2049408,0.3929138-0.3668671,0.647213-0.4864655
		c0.2543449-0.1209488,0.5394897-0.1807404,0.8567429-0.1807404c0.3172569,0,0.6024017,0.0597916,0.8567047,0.1807404
		c0.2543411,0.1195984,0.4698753,0.2815247,0.6472549,0.4864655c0.1773758,0.2035828,0.3125572,0.4407654,0.4056168,0.7095375
		c0.0930176,0.2694359,0.1398773,0.5529785,0.1398773,0.8513069C62.6662941,42.7253075,62.6194344,43.0095291,62.5264168,43.2782898
		"/>
	<path class="st0" d="M68.953949,39.8672676h-0.4892426l-1.6860352,4.6361809h-0.6151047v1.4802208h0.503334v-1.0038261h4.0714493
		v1.0038261h0.503334v-1.4802208h-0.6157532L68.953949,39.8672676z M67.2826996,44.5034485l1.4129028-4.0583382l1.412941,4.0583382
		H67.2826996z"/>
	<polygon class="st0" points="74.9766769,42.5464401 77.3754959,42.5464401 77.3754959,42.0841751 74.9766769,42.0841751 
		74.9766769,40.3291435 77.5434799,40.3291435 77.5434799,39.8668671 74.4726486,39.8668671 74.4726486,44.9801064 
		77.6278381,44.9801064 77.6278381,44.5178299 74.9766769,44.5178299 	"/>
	<path class="st0" d="M85.3638458,42.2505341l1.5875854-2.3832664h-0.5521545l-1.4832458,2.2461967
		c-0.1071091-0.0248604-0.220192-0.0423317-0.3393097-0.0544205c-0.1184769-0.0120964-0.241684-0.0181465-0.3668518-0.0181465
		v-2.1736298H83.705925v2.1736298c-0.125824,0-0.2482986,0.0060501-0.3667679,0.0181465
		c-0.1191254,0.0120888-0.2322845,0.0295601-0.3400497,0.0544205l-1.4825134-2.2461967h-0.5522308l1.5809631,2.3832664
		c-0.914917,0.3803062-1.4457474,1.2900772-1.5950165,2.7293091h0.5522308
		c0.0508194-0.4474945,0.136528-0.8298111,0.2556534-1.1482964c0.1184692-0.3171425,0.2710876-0.5751572,0.4578629-0.7720261
		c0.1860428-0.1975479,0.4035339-0.3399849,0.650528-0.4266701c0.2469864-0.0866776,0.526741-0.1249695,0.8393402-0.1155663
		v2.4625587h0.5039444v-2.4625587c0.3119431-0.0094032,0.5916977,0.0288887,0.8393402,0.1155663
		c0.2469864,0.0866852,0.4631805,0.2291222,0.6499481,0.4266701c0.1866989,0.1968689,0.3399734,0.4548836,0.4584427,0.7720261
		c0.1191254,0.3184853,0.2041779,0.7008018,0.2549973,1.1482964h0.552887
		c-0.0796661-0.7216377-0.2496872-1.3095589-0.5107269-1.7624245
		C86.1937943,42.7652206,85.8296432,42.4433708,85.3638458,42.2505341"/>
	<path class="st0" d="M92.7499237,39.8672676h-0.4892349l-1.6866913,4.6361809h-0.6151428v1.4802208h0.5040283v-1.0038261h4.0707932
		v1.0038261h0.503952v-1.4802208h-0.6157227L92.7499237,39.8672676z M91.0786819,44.5034485l1.4128952-4.0583382
		l1.4129028,4.0583382H91.0786819z"/>
	<path class="st0" d="M99.8219376,39.8673401l-2.1411209,5.1125641h0.552887l0.5381012-1.3431473h2.560173l0.5461121,1.3431473
		h0.5595856l-2.1264191-5.1125641H99.8219376z M98.9612732,43.1603622l1.0909042-2.7151794l1.0909882,2.7151794H98.9612732z"/>
	<path class="st0" d="M112.6809998,42.4635277c-0.1472244-0.1229591-0.3232956-0.2170258-0.5281296-0.2815247
		c-0.2054825-0.0651741-0.4336777-0.0974274-0.6859818-0.0974274h-1.0066681v-1.7402458h2.3078003v-0.4770622h-2.8111725v5.1125755
		h1.4966431c0.2516479,0,0.4812317-0.0322571,0.6886749-0.0974312c0.2075272-0.0651741,0.3849106-0.1599197,0.532135-0.2855644
		c0.1465759-0.1243019,0.2610474-0.2761536,0.3426666-0.4548836c0.0809708-0.1780586,0.1218185-0.3823204,0.1218185-0.6134529
		c0-0.2264366-0.0394592-0.4293556-0.1191254-0.610096C112.9406586,42.7376709,112.8275833,42.5858231,112.6809998,42.4635277
		 M112.3383408,44.2400589c-0.2121887,0.1760445-0.516777,0.2633972-0.9129562,0.2633972h-0.9651642v-1.9431725h0.9651642
		c0.3821259,0,0.6826324,0.0813026,0.9021683,0.2425652s0.3286972,0.4011307,0.3286972,0.7189484
		C112.65625,43.8248215,112.5504379,44.0640221,112.3383408,44.2400589"/>
	<path class="st0" d="M120.9489059,40.4992752c-0.230896-0.2385368-0.5039444-0.4253273-0.8185043-0.5597076
		c-0.3146439-0.1343803-0.6559143-0.20224-1.0247269-0.20224c-0.3688049,0-0.7101669,0.0678596-1.0247269,0.20224
		c-0.3145523,0.1343803-0.5876923,0.3211708-0.8185806,0.5597076c-0.230896,0.2385254-0.4109726,0.5207253-0.5421906,0.8486252
		c-0.1304779,0.3272171-0.1954346,0.6860161-0.1954346,1.0757256s0.0649567,0.7485085,0.1954346,1.0763931
		c0.131218,0.3265533,0.3112946,0.6100998,0.5421906,0.8479576c0.2308884,0.2385254,0.5040283,0.4246521,0.8185806,0.5596962
		c0.3145599,0.1343803,0.6559219,0.2022514,1.0247269,0.2022514c0.3688126,0,0.710083-0.0678711,1.0247269-0.2022514
		c0.3145599-0.1350441,0.5876083-0.3211708,0.8185043-0.5596962c0.2303238-0.2378578,0.4109726-0.5214043,0.5415344-0.8479576
		c0.131134-0.3278847,0.1960831-0.6866837,0.1960831-1.0763931s-0.064949-0.7485085-0.1960831-1.0757256
		C121.3598785,41.0200005,121.1792297,40.7378006,120.9489059,40.4992752 M121.0152512,43.2782898
		c-0.0930634,0.2694359-0.2282791,0.503933-0.4056625,0.7061844c-0.1773758,0.20224-0.3929062,0.3635025-0.6472549,0.4830971
		c-0.2542572,0.1202736-0.5394058,0.1800766-0.8566589,0.1800766s-0.6024017-0.059803-0.8567429-0.1800766
		c-0.2543411-0.1195946-0.4698792-0.2808571-0.6472549-0.4830971c-0.1773758-0.2022514-0.3125153-0.4367485-0.4055786-0.7061844
		c-0.0937119-0.2687607-0.1405258-0.5529823-0.1405258-0.8506355c0-0.2983284,0.046814-0.581871,0.1405258-0.8513069
		c0.0930634-0.2687721,0.2282028-0.5059547,0.4055786-0.7095375c0.1773758-0.2049408,0.3929138-0.3668671,0.6472549-0.4864655
		c0.2543411-0.1209488,0.5394897-0.1807404,0.8567429-0.1807404s0.6024017,0.0597916,0.8566589,0.1807404
		c0.2543488,0.1195984,0.4698792,0.2815247,0.6472549,0.4864655c0.1773834,0.2035828,0.3125992,0.4407654,0.4056625,0.7095375
		c0.0929794,0.2694359,0.1391373,0.5529785,0.1391373,0.8513069
		C121.1543884,42.7253075,121.1082306,43.0095291,121.0152512,43.2782898"/>
	<polygon class="st0" points="126.862114,39.8671341 124.7222977,44.9797096 125.2744522,44.9797096 127.0930099,40.5175438 
		128.9189148,44.9797096 129.4784241,44.9797096 127.3520126,39.8671341 	"/>
	<path class="st0" d="M135.2307587,42.3594551c-0.1465759-0.130352-0.321991-0.231144-0.5273895-0.3037109
		c-0.2054901-0.072567-0.4337769-0.1088524-0.6854095-0.1088524h-0.8748016v-2.0795517h-0.5040283v5.1125641h1.3647766
		c0.2516327,0,0.4812317-0.0356102,0.6886749-0.1081772c0.2075195-0.0732422,0.3842468-0.1753693,0.5314789-0.3077393
		c0.1465759-0.1330376,0.2610474-0.2922783,0.3426666-0.477726c0.0816956-0.1861153,0.122467-0.3944168,0.122467-0.6262169
		c0-0.2318077-0.0394592-0.4401093-0.1191254-0.6262245C135.4911499,42.6483727,135.3786469,42.4904709,135.2307587,42.3594551
		 M134.8740387,44.214592c-0.2068634,0.2022514-0.5067291,0.3037109-0.8988953,0.3037109h-0.8319855v-2.1091347h0.8319855
		c0.382782,0,0.6800079,0.0947456,0.8921967,0.2849007c0.2120972,0.1901436,0.3179169,0.4447937,0.3179169,0.7626152
		C135.185257,43.759716,135.0821381,44.0123482,134.8740387,44.214592"/>
	<polygon class="st0" points="144.369873,44.5034485 142.3477936,44.5034485 142.3477936,39.8672676 141.8451538,39.8672676 
		141.8451538,44.5034485 139.7749481,44.5034485 139.7749481,39.8672676 139.2709961,39.8672676 139.2709961,44.9798431 
		144.8738098,44.9798431 144.8738098,39.8672676 144.369873,39.8672676 	"/>
	<polygon class="st0" points="149.2803345,44.222187 149.2661896,44.222187 149.2661896,39.8668671 148.7622528,39.8668671 
		148.7622528,44.9801064 149.3921051,44.9801064 152.2734528,40.5824547 152.2881622,40.5824547 152.2881622,44.9801064 
		152.7915344,44.9801064 152.7915344,39.8668671 152.1616821,39.8668671 	"/>
	<polygon class="st0" points="160.2547455,39.8671341 159.653656,39.8671341 158.303009,41.9325905 156.9462433,39.8671341 
		156.3164673,39.8671341 157.9743195,42.2940865 156.155838,44.9797096 156.7849579,44.9797096 158.2889557,42.676403 
		159.7995758,44.9797096 160.4294281,44.9797096 158.6108704,42.3008003 	"/>
	<path class="st0" d="M170.6356659,40.2033653c-0.1465759-0.1135559-0.3226471-0.1975441-0.5274811-0.2526436
		c-0.2054901-0.0557632-0.4336853-0.0833092-0.6859894-0.0833092h-1.3989258v5.1125603h0.5040283v-2.3758698h0.8808441
		c0.2516479,0,0.4812317-0.0282249,0.6893311-0.0866776c0.2075348-0.0577812,0.3849182-0.143116,0.5314941-0.2560043
		c0.1472168-0.1128807,0.2610321-0.2553177,0.3426514-0.4259834c0.0809784-0.1713409,0.1224823-0.3715744,0.1224823-0.6033821
		c0-0.2304688-0.0394592-0.4320335-0.1184692-0.6026955C170.8953094,40.4580193,170.7822418,40.316246,170.6356659,40.2033653
		 M170.2829437,41.9254646c-0.2054749,0.1592522-0.5067291,0.2385368-0.9022522,0.2385368h-0.8533936v-1.8490982h0.8533936
		c0.3821259,0,0.6793671,0.0739098,0.8914642,0.2203903c0.2121887,0.1471443,0.3186493,0.3796196,0.3186493,0.6967621
		C170.5908051,41.5350914,170.4883423,41.7668991,170.2829437,41.9254646"/>
	<path class="st0" d="M176.2071075,39.8673401l-2.1404724,5.1125641h0.552887l0.5388336-1.3431473h2.5601044l0.5447998,1.3431473
		h0.5595856l-2.1264191-5.1125641H176.2071075z M175.3464355,43.1603622l1.0916443-2.7151794l1.0909882,2.7151794H175.3464355z"/>
	<path class="st0" d="M184.9122772,42.6188774c-0.1231995-0.096077-0.2610321-0.1699905-0.4130096-0.2203789
		c-0.1519623-0.0504036-0.2971497-0.08601-0.437027-0.1048241v-0.014782
		c0.1218262-0.0329208,0.2409363-0.0846558,0.3600616-0.1552162c0.1191254-0.0692024,0.2262421-0.155201,0.3226471-0.2559929
		c0.0943756-0.1007843,0.1713409-0.215683,0.2295074-0.3426704c0.0589142-0.128334,0.0877533-0.2667542,0.0877533-0.4152412
		c0-0.2217293-0.03685-0.4179344-0.1098175-0.5885963c-0.0736084-0.1713409-0.1773682-0.3144569-0.3118591-0.4300232
		c-0.1339111-0.1155663-0.2951965-0.2035828-0.4839325-0.2633896c-0.188736-0.0604668-0.3949432-0.0907021-0.6191406-0.0907021
		c-0.3266449,0-0.6137543,0.0665169-0.8634491,0.1988792c-0.2496033,0.13237-0.4510803,0.3359528-0.605011,0.610096
		l0.3915253,0.3037033c0.0983734-0.1975365,0.2342377-0.358799,0.4090118-0.4837761
		c0.1746826-0.1256447,0.3835144-0.1881371,0.6264191-0.1881371c0.3166046,0,0.5736389,0.0806389,0.7690735,0.24189
		c0.1954346,0.1619301,0.293808,0.4011307,0.293808,0.7182732c0,0.1686516-0.0375061,0.3131104-0.1117706,0.4340515
		c-0.0749207,0.119606-0.1719971,0.217701-0.2904663,0.2916107c-0.1191101,0.0752563-0.2549896,0.1296768-0.4089966,0.1626053
		c-0.1539307,0.0342674-0.3098297,0.0503922-0.4684906,0.0503922h-0.2168427v0.4481583h0.2168427
		c0.2141418,0,0.4156189,0.015461,0.6050873,0.047039c0.188736,0.0315781,0.3540344,0.0866776,0.4959412,0.1659584
		c0.141922,0.0792923,0.2543488,0.1867905,0.335968,0.3211823c0.0817108,0.1350479,0.1224823,0.3036995,0.1224823,0.5059433
		c0,0.3319244-0.1097412,0.5979996-0.3286133,0.797554c-0.2188873,0.2002335-0.5314026,0.2996712-0.9370575,0.2996712
		c-0.1820374,0-0.3420105-0.0221634-0.4792023-0.0651741c-0.1379089-0.0429993-0.2576904-0.1028023-0.3607941-0.1800652
		c-0.1023712-0.0772743-0.1893921-0.1699982-0.2623444-0.2788506c-0.0723114-0.1081734-0.1358795-0.2291107-0.1920929-0.3635025
		l-0.4330292,0.2667503c0.0736237,0.1592407,0.1619415,0.3043785,0.2617035,0.4367485
		c0.1004028,0.1323586,0.2174835,0.2452393,0.353363,0.3393059c0.1345673,0.0940704,0.2911835,0.1666374,0.4685669,0.2170258
		c0.1772919,0.0497284,0.3781281,0.0752563,0.6016693,0.0752563c0.2516479,0,0.4879303-0.0356064,0.7095032-0.1081772
		c0.2215118-0.072567,0.4143219-0.1753693,0.5769196-0.3104134c0.1633148-0.1343918,0.2918396-0.2969856,0.384903-0.4871407
		c0.0929718-0.190155,0.1398773-0.4038162,0.1398773-0.6389885c0-0.226429-0.0408478-0.4172592-0.1224823-0.5704536
		C185.1377869,42.8399391,185.0354156,42.714962,184.9122772,42.6188774"/>
	<polygon class="st0" points="191.5113983,44.0988922 191.5046997,44.0988922 189.8260193,39.8672066 189.0562897,39.8672066 
		189.0562897,44.9797707 189.560318,44.9797707 189.560318,40.5391159 189.5737152,40.5391159 191.3647308,44.9797707 
		191.6305237,44.9797707 193.4208832,40.5391159 193.4356689,40.5391159 193.4356689,44.9797707 193.9389648,44.9797707 
		193.9389648,39.8672066 193.1692352,39.8672066 	"/>
	<polygon class="st0" points="198.3309326,42.5464401 200.7304077,42.5464401 200.7304077,42.0841751 198.3309326,42.0841751 
		198.3309326,40.3291435 200.8977356,40.3291435 200.8977356,39.8668671 197.8269043,39.8668671 197.8269043,44.9801064 
		200.9813995,44.9801064 200.9813995,44.5178299 198.3309326,44.5178299 	"/>
	<path class="st0" d="M207.1540222,40.2033653c-0.1465759-0.1135559-0.3220062-0.1975441-0.5274811-0.2526436
		c-0.2054901-0.0557632-0.4336853-0.0833092-0.6859894-0.0833092h-1.3981934v5.1125603h0.5032959v-2.3758698h0.8808441
		c0.2523041,0,0.4818878-0.0282249,0.6893311-0.0866776c0.2075348-0.0577812,0.3849182-0.143116,0.532135-0.2560043
		c0.1465759-0.1128807,0.2603912-0.2553177,0.3420105-0.4259834c0.0816345-0.1713409,0.1224823-0.3715744,0.1224823-0.6033821
		c0-0.2304688-0.0388184-0.4320335-0.1184692-0.6026955C207.4143219,40.4580193,207.301239,40.316246,207.1540222,40.2033653
		 M206.8013,41.9254646c-0.2054749,0.1592522-0.506073,0.2385368-0.9022522,0.2385368h-0.8533936v-1.8490982h0.8533936
		c0.3821259,0,0.6800232,0.0739098,0.8922119,0.2203903c0.211441,0.1471443,0.3179016,0.3796196,0.3179016,0.6967621
		C207.1091614,41.5350914,207.0066986,41.7668991,206.8013,41.9254646"/>
	<path class="st0" d="M215.3309784,40.4992752c-0.230896-0.2385368-0.5032959-0.4253273-0.8178406-0.5597076
		c-0.3145599-0.1343803-0.6565704-0.20224-1.0253906-0.20224c-0.3681488,0-0.7095032,0.0678596-1.0240631,0.20224
		c-0.3152161,0.1343803-0.5883484,0.3211708-0.8185883,0.5597076c-0.230896,0.2385254-0.4116211,0.5207253-0.5414581,0.8486252
		c-0.1318665,0.3272171-0.1968231,0.6860161-0.1968231,1.0757256s0.0649567,0.7485085,0.1968231,1.0763931
		c0.129837,0.3265533,0.3105621,0.6100998,0.5414581,0.8479576c0.2302399,0.2385254,0.5033722,0.4246521,0.8185883,0.5596962
		c0.3145599,0.1343803,0.6559143,0.2022514,1.0240631,0.2022514c0.3688202,0,0.7108307-0.0678711,1.0253906-0.2022514
		c0.3145447-0.1350441,0.5869446-0.3211708,0.8178406-0.5596962c0.2309875-0.2378578,0.4109802-0.5214043,0.5421906-0.8479576
		c0.1304779-0.3278847,0.1954346-0.6866837,0.1954346-1.0763931s-0.0649567-0.7485085-0.1954346-1.0757256
		C215.7419586,41.0200005,215.5619659,40.7378006,215.3309784,40.4992752 M215.3973236,43.2782898
		c-0.0930634,0.2694359-0.2282715,0.503933-0.4056549,0.7061844c-0.1773834,0.20224-0.3921814,0.3635025-0.6465149,0.4830971
		c-0.2543488,0.1202736-0.5401459,0.1800766-0.8574066,0.1800766c-0.3165894,0-0.6024017-0.059803-0.8560791-0.1800766
		c-0.2543488-0.1195946-0.4705353-0.2808571-0.6479187-0.4830971c-0.1766357-0.2022514-0.3118591-0.4367485-0.4055634-0.7061844
		c-0.0930634-0.2687607-0.1392365-0.5529823-0.1392365-0.8506355c0-0.2983284,0.0461731-0.581871,0.1392365-0.8513069
		c0.0937042-0.2687721,0.2289276-0.5059547,0.4055634-0.7095375c0.1773834-0.2049408,0.3935699-0.3668671,0.6479187-0.4864655
		c0.2536774-0.1209488,0.5394897-0.1807404,0.8560791-0.1807404c0.3172607,0,0.6030579,0.0597916,0.8574066,0.1807404
		c0.2543335,0.1195984,0.4691315,0.2815247,0.6465149,0.4864655c0.1773834,0.2035828,0.3125916,0.4407654,0.4056549,0.7095375
		c0.0929871,0.2694359,0.1398773,0.5529785,0.1398773,0.8513069
		C215.5372009,42.7253075,215.4903107,43.0095291,215.3973236,43.2782898"/>
	<path class="st0" d="M221.883606,42.2864876v-0.0141068c0.2669983-0.0631676,0.4805756-0.1935158,0.6391602-0.3937378
		c0.1593323-0.2002335,0.2396393-0.4347305,0.2396393-0.7041664c0-0.2553291-0.0475464-0.4669838-0.1438751-0.6356277
		c-0.095108-0.1679764-0.2182312-0.3016891-0.3702087-0.4004631c-0.151886-0.0987625-0.3232117-0.168644-0.5139923-0.2096329
		c-0.1914368-0.0409889-0.3801575-0.0618134-0.5669403-0.0618134h-1.4758148v5.1132393h1.4657745
		c0.2838287,0,0.5401306-0.033596,0.7677612-0.1007919c0.2281952-0.0678635,0.420929-0.1625938,0.5796051-0.285553
		c0.1585846-0.1229591,0.2804108-0.2721252,0.3661194-0.4481697C222.9571838,43.970295,223,43.7767868,223,43.5651321
		c0-0.3755989-0.105072-0.6732521-0.3179016-0.8929634C222.4712219,42.4537888,222.2048645,42.3254585,221.883606,42.2864876
		 M220.1955261,40.3150978h0.8741455c0.1633301,0,0.3172607,0.0161285,0.4618683,0.047039
		c0.1445313,0.0309105,0.2703552,0.0826454,0.3774719,0.1552124c0.1071167,0.0718918,0.1927338,0.1646156,0.2550049,0.2781715
		c0.0635529,0.1128807,0.0950165,0.2512932,0.0950165,0.4152412c0,0.1679764-0.0314636,0.3104134-0.0950165,0.4259911
		c-0.0622711,0.1148911-0.1452789,0.2082901-0.2476501,0.2781715c-0.1023712,0.0692062-0.2155304,0.1189194-0.3393097,0.1478119
		c-0.1238708,0.028904-0.2463379,0.0436745-0.3675079,0.0436745h-1.0140228V40.3150978z M222.3849335,43.9944801
		c-0.0749969,0.1276627-0.1740265,0.231144-0.2972412,0.3104248c-0.1244354,0.0792847-0.2677307,0.1377449-0.43367,0.1733513
		c-0.1660309,0.0362854-0.3400574,0.0537529-0.5214386,0.0537529h-0.9370575v-1.9996033h1.0280762
		c0.4056549,0,0.7189026,0.0826454,0.9404144,0.2486038c0.222229,0.165966,0.3326874,0.4179344,0.3326874,0.7545547
		C222.4967041,43.713623,222.459198,43.8668251,222.3849335,43.9944801"/>
	<path class="st0" d="M23.6720753,12.0464706c2.7020168-0.3346119,4.1102581-3.2056828,4.1397114-5.6816716
		c-0.028759-2.3705006-1.1713009-4.7127862-3.3090725-5.8523459c-1.9771843-1.0542278-4.2314243-0.4273362-5.5178452,1.380105
		c-1.4042377,1.9727328-1.4999542,4.7315998-0.4618301,6.8843975
		C19.4406509,10.6804733,21.4673481,12.3199368,23.6720753,12.0464706 M19.4232903,3.7557628
		c0.710125-1.6347575,2.272295-3.0565186,4.1557655-2.831424c2.2234383,0.2660739,3.1303883,2.809258,3.1531429,4.7618241
		c-0.0227547,1.902185-0.79179,3.976366-2.5099316,4.9687815c-1.559515,0.9010344-3.4121838,0.5086393-4.4007549-1.0078659
		C18.7158184,7.9505086,18.6247597,5.5947924,19.4232903,3.7557628"/>
	<path class="st1" d="M31.587019,31.7440662c0-0.9991322-0.2101822-2.037899-0.5876923-3.092804
		c-0.0903244-0.2512894-0.191391-0.503933-0.3005066-0.7572422c-0.1459217-0.3372974-0.3032017-0.6752625-0.4812336-1.0145817
		c-1.4664955-2.7904434-3.9937878-5.5990353-6.9976997-7.9964085c-0.4363785-0.3487186-0.8855019-0.6853504-1.3406315-1.0145817
		c-4.5299263-3.2842989-9.8757458-5.5802221-14.2671041-5.5802221C3.4991972,12.2882261,0,15.0988274,0,18.7876205
		c0,7.4225941,13.0369358,20.686779,13.0369358,26.1762886V46c0.0856667-0.0194893,0.1699839-0.0376282,0.2610426-0.0671959
		c1.0173311-0.3245316,2.3205023-1.2195206,2.3205023-2.198494c0-5.4021568-13.1687651-18.9297295-13.1687651-25.8242054
		c0-3.5141001,2.0126431-4.9634094,4.3311434-4.9634094c4.6088934,0,9.6461601,2.518322,13.7550678,5.9370022
		c0.4591751,0.3816509,0.9062557,0.7740459,1.3399792,1.1758423c3.00387,2.7837296,5.3565216,5.9954624,6.4354572,8.8987865
		c0.1184692,0.3171425,0.2242355,0.6309319,0.3112488,0.9400043c0.1124249,0.4011307,0.1927395,0.7921829,0.2496452,1.1751766
		c0.0535564,0.364172,0.0896702,0.7216263,0.0896702,1.0663166c0,1.8444023-0.6565704,3.2056847-2.6250515,3.2056847
		c-0.3667679,0-0.7429295-0.036953-1.1257515-0.1041489c-0.4451218-0.0779381-0.8995972-0.200222-1.3593826-0.3587952
		l0.5026398,0.7202911c0.1439209,0.0423317,0.2884941,0.0859985,0.432375,0.1216164
		c0.7242203,0.1800652,1.4343452,0.2801819,2.1190605,0.2801819C29.1373043,36.0046539,31.587019,34.159584,31.587019,31.7440662"/>
	<path class="st0" d="M38.2093315,12.2827206c-2.7529182,0-5.8819542,0.9030542-8.9500847,2.3846178l0.8901596,0.8741522
		c2.9081955-1.595787,5.9850235-2.5996237,8.8911781-2.5996237c2.3185387,0,4.3311424,1.4486427,4.3311424,4.9627333
		c0,6.8951511-13.1687641,20.4220486-13.1687641,25.8248806c0,1.0643082,1.5427647,2.0311928,2.5815449,2.2703857v-1.0407867
		c0-5.4901848,13.0369339-18.7536945,13.0369339-26.1762886C45.8214417,15.0933313,42.3215904,12.2827206,38.2093315,12.2827206"/>
	<path class="st0" d="M71.7746811,24.0218086c-0.4223251-0.444128-0.9250107-0.8029366-1.5086136-1.0750599
		c-0.5836487-0.272789-1.2168503-0.4495029-1.9008713-0.530138v-0.0604706
		c1.126442-0.3030338,2.0313492-0.8580246,2.7160645-1.6663342c0.6833725-0.8069687,1.0254211-1.8074417,1.0254211-2.9987354
		c0-1.0300426-0.1961288-1.8880787-0.5883484-2.5747623c-0.3922195-0.6860285-0.9049072-1.2416964-1.538765-1.6663465
		c-0.633812-0.4239731-1.3526764-0.7270079-2.1571732-0.9084158c-0.805191-0.1820955-1.6097183-0.2727995-2.4142151-0.2727995
		h-7.3624649v21.4467201h7.0304642c1.1063843,0,2.1471634-0.1256447,3.1230316-0.3789635
		c0.975174-0.2519684,1.8258667-0.6255493,2.550087-1.1207466c0.7241821-0.4945221,1.2971268-1.1254425,1.7194519-1.8934402
		c0.4223633-0.7673206,0.6338577-1.6656704,0.6338577-2.6957016c0-0.7471638-0.1157761-1.4237804-0.3467102-2.0291729
		C72.5236588,24.9913712,72.1977005,24.4659386,71.7746811,24.0218086 M61.0328369,14.7830381h3.4094849
		c1.4283371,0,2.5648346,0.2479382,3.4101791,0.7417927c0.844696,0.4951982,1.2670212,1.3176146,1.2670212,2.4685965
		c0,0.5865784-0.110466,1.086483-0.3320007,1.4997005c-0.2215424,0.4145718-0.5227432,0.7579193-0.9049072,1.0300426
		c-0.3828278,0.2728004-0.8299484,0.4743652-1.3426361,0.6060581c-0.513382,0.1316948-1.0514832,0.1968689-1.6143799,0.1968689
		h-3.8927612V14.7830381z M69.6175003,29.2774887c-0.3118973,0.4750404-0.7242203,0.8533287-1.236908,1.1362076
		c-0.513382,0.282877-1.0862885,0.4797459-1.7201462,0.5906067c-0.6338501,0.1108608-1.2623138,0.1666355-1.8861237,0.1666355
		h-3.7414856v-7.300312h4.013237c1.6290817,0,2.8760376,0.282877,3.7414474,0.8479557
		c0.8647461,0.5657463,1.2978134,1.484251,1.2978134,2.7561703C70.0853348,28.2017612,69.9293671,28.8031235,69.6175003,29.2774887"
		/>
	<rect x="79.40979" y="12.2683363" class="st0" width="2.9871614" height="21.4467182"/>
	<path class="st0" d="M100.4425583,24.5369587h4.7373276v5.9679127c-0.6230698,0.3433475-1.357338,0.6053925-2.2019882,0.7868118
		c-0.8453903,0.182085-1.7710037,0.272789-2.7770233,0.272789c-1.2663193,0-2.4135208-0.2223988-3.4395523-0.6665287
		c-1.0254593-0.4434643-1.8908615-1.0549049-2.5943298-1.832304c-0.7047729-0.7773991-1.2482681-1.6911964-1.6297379-2.741396
		c-0.3828659-1.0495224-0.5729904-2.1709442-0.5729904-3.3622398c0-1.1711369,0.1901245-2.2770996,0.5729904-3.3172207
		c0.3814697-1.0401192,0.9249649-1.9539185,1.6297379-2.741396c0.7034683-0.7874775,1.5581665-1.4083195,2.5641861-1.863204
		c1.005928-0.4542189,2.1317215-0.6813231,3.3793335-0.6813231c1.2275162,0,2.3386002,0.2123299,3.3352203,0.6356268
		c0.9953079,0.4246502,1.8145523,0.9903955,2.458374,1.6972475l2.0822983-2.1816902
		c-0.8855057-0.8479567-1.9972458-1.5238972-3.3339157-2.0291729c-1.3379745-0.5046101-2.8626404-0.7572422-4.5713882-0.7572422
		c-1.6298218,0-3.1391296,0.2721224-4.526619,0.8177118c-1.3874893,0.5455885-2.5902481,1.3075371-3.6062317,2.2871885
		c-1.0153275,0.97964-1.8105469,2.1608658-2.3834534,3.5436573c-0.573555,1.3834572-0.8600922,2.9134045-0.8600922,4.589817
		c0,1.655592,0.2817993,3.1754494,0.8453903,4.558239c0.5621948,1.3834686,1.3466339,2.5747623,2.3526459,3.5745697
		c1.0066681,0.9997959,2.2080383,1.7772083,3.6068878,2.3321972c1.3975372,0.5556793,2.9309464,0.8331718,4.6008835,0.8331718
		c1.5688705,0,3.0179672-0.1612625,4.3458939-0.4844513c1.3272705-0.3225136,2.5541306-0.7874794,3.6812286-1.3935356V21.9924412
		h-7.695076V24.5369587z"/>
	<polygon class="st0" points="141.3793488,15.7823639 141.4395752,15.7823639 141.4395752,33.7149925 144.4267273,33.7149925 
		144.4267273,12.2682743 139.7803345,12.2682743 133.4734039,28.7475548 133.4131012,28.7475548 127.0164566,12.2682743 
		122.3701401,12.2682743 122.3701401,33.7149925 125.2668533,33.7149925 125.2668533,15.7823639 125.3264999,15.7823639 
		132.3877258,33.7149925 134.288559,33.7149925 	"/>
	<path class="st0" d="M170.1183167,14.8282518c-1.0066681-0.97964-2.2027283-1.7415886-3.5908661-2.2865114
		c-1.3881531-0.5455885-2.8968048-0.8183889-4.5266266-0.8183889c-1.6290894,0-3.1329956,0.2728004-4.5111694,0.8183889
		c-1.3780975,0.5449228-2.5695038,1.3068714-3.5754242,2.2865114c-1.0060272,0.9796515-1.790451,2.1608667-2.3533173,3.5443239
		c-0.5642395,1.3834686-0.8453827,2.9127388-0.8453827,4.5891514c0,1.6562672,0.2811432,3.1761246,0.8453827,4.5589161
		c0.5628662,1.3834686,1.34729,2.5747623,2.3533173,3.5745697c1.0059204,0.9991322,2.1973267,1.7771969,3.5754242,2.3321972
		c1.3781738,0.5550003,2.8820801,0.8331718,4.5111694,0.8331718c1.6298218,0,3.1384735-0.2781715,4.5266266-0.8331718
		c1.3881378-0.5550003,2.584198-1.333065,3.5908661-2.3321972c1.006012-0.9998074,1.795105-2.1911011,2.3687439-3.5745697
		c0.5729065-1.3827915,0.8600159-2.9026489,0.8600159-4.5589161c0-1.6764126-0.2871094-3.2056828-0.8600159-4.5891514
		C171.9134216,16.9891186,171.1243286,15.8079033,170.1183167,14.8282518 M169.544754,26.323967
		c-0.3828583,1.0501976-0.925705,1.9639969-1.6291656,2.741396c-0.7047729,0.7780762-1.5594788,1.3888397-2.5648346,1.8329811
		c-1.0065918,0.4441299-2.1230621,0.6665268-3.3499298,0.6665268c-1.2267761,0-2.3332062-0.2223969-3.3191223-0.6665268
		c-0.9858398-0.4441414-1.8305664-1.0549049-2.5346832-1.8329811c-0.7047729-0.7773991-1.2476196-1.6911983-1.6290894-2.741396
		c-0.3828583-1.0495224-0.5736389-2.170269-0.5736389-3.3622398c0-1.1711369,0.1907806-2.2764339,0.5736389-3.3172207
		c0.3814697-1.039444,0.9203033-1.9539185,1.6143799-2.741396s1.5387268-1.4083195,2.5346832-1.863205
		c0.9953156-0.4542074,2.1070557-0.6813221,3.3338318-0.6813221c1.2476196,0,2.3687439,0.2271147,3.3647156,0.6813221
		c0.9958801,0.4548855,1.8452759,1.0757275,2.5500488,1.863205c0.7034607,0.7874775,1.2463074,1.701952,1.6291656,2.741396
		c0.3821259,1.0407867,0.5735626,2.1460838,0.5735626,3.3172207C170.1183167,24.153698,169.9268799,25.2744446,169.544754,26.323967
		"/>
	<path class="st0" d="M197.4682312,18.1147671c-0.6846771-1.3525581-1.5802307-2.4632254-2.6859283-3.3320055
		c-1.1064148-0.8674364-2.3432465-1.5037298-3.71138-1.9082232c-1.368042-0.4038172-2.7361603-0.6060696-4.1035461-0.6060696
		h-7.3323212v21.4467182h7.3323212c1.3673859,0,2.7355042-0.2163467,4.1035461-0.6510773
		c1.3681335-0.4347267,2.6049652-1.0905113,3.71138-1.9687023c1.1056976-0.8788586,2.0012512-1.9888496,2.6859283-3.3326702
		c0.6833649-1.3424778,1.0261078-2.9328938,1.0261078-4.7712364
		C198.494339,21.0940208,198.1515961,19.4686661,197.4682312,18.1147671 M194.6317291,26.414875
		c-0.443161,1.0098858-1.0615692,1.858511-1.8554077,2.544529c-0.7957916,0.6866932-1.7408447,1.2121258-2.8365021,1.5749645
		c-1.0970306,0.3635025-2.2890778,0.5455894-3.5768127,0.5455894h-3.7408752V14.873476h3.7408752
		c1.287735,0,2.4797821,0.1773796,3.5768127,0.5308056c1.0956573,0.353425,2.0407104,0.8681126,2.8365021,1.5447197
		c0.7938385,0.6766167,1.4122467,1.5191898,1.8554077,2.5290756c0.442337,1.0098763,0.6639252,2.1810246,0.6639252,3.5134239
		C195.2956543,24.2640972,195.0740662,25.4056664,194.6317291,26.414875"/>
	<path class="st0" d="M213.8249359,12.2686129h-2.7154083l-9.2639465,21.4467201h3.3197784l2.1418457-5.2711391h10.1394043
		l2.1719208,5.2711391h3.379425L213.8249359,12.2686129z M208.3633881,25.8089504l4.0131989-10.0564823l3.9830475,10.0564823
		H208.3633881z"/>
</g>
</svg>
