<?xml version="1.0" encoding="utf-8"?>
<!-- Generator: Adobe Illustrator 23.0.3, SVG Export Plug-In . SVG Version: 6.00 Build 0)  -->
<svg version="1.1" id="Layer_1" xmlns="http://www.w3.org/2000/svg" xmlns:xlink="http://www.w3.org/1999/xlink" x="0px" y="0px"
	 viewBox="0 0 17 17" style="enable-background:new 0 0 17 17;" xml:space="preserve">
<path d="M16.3717651,0.0364641L0.2956819,7.159368C-0.101011,7.3351169-0.0976152,7.980206,0.3002567,8.1514091l3.917171,1.6792765
	l1.5161204,5.600255c0.0971098,0.3587122,0.4789462,0.4912777,0.7324033,0.2532234l2.1834855-2.0444613
	c0.2289314-0.2141399,0.5548792-0.2248125,0.7940931-0.0254459l3.9382534,3.2839937
	c0.2710962,0.2263451,0.6552429,0.055685,0.7233-0.3206177l2.884903-15.9385719
	C17.0642204,0.2279748,16.7125225-0.1148768,16.3717651,0.0364641z M13.3058023,3.7638574l-6.3180327,6.7453179
	c-0.2220936,0.2374115-0.3653293,0.5550642-0.40589,0.9000406l-0.2152543,1.8318033
	c-0.0285339,0.2446251-0.327693,0.2688856-0.3864584,0.0321159L5.1524458,9.932765
	C5.0576944,9.5517206,5.1958365,9.1447353,5.4892411,8.9367714l7.6555448-5.4154644
	C13.2824564,3.4242668,13.4239473,3.6379623,13.3058023,3.7638574z"/>
</svg>
