<?xml version="1.0" encoding="utf-8"?>
<!-- Generator: Adobe Illustrator 23.0.3, SVG Export Plug-In . SVG Version: 6.00 Build 0)  -->
<svg version="1.1" id="Layer_1" xmlns="http://www.w3.org/2000/svg" xmlns:xlink="http://www.w3.org/1999/xlink" x="0px" y="0px"
	 viewBox="0 0 18 12" style="enable-background:new 0 0 18 12;" xml:space="preserve">
<path d="M14.2616577,0H3.7383423C1.6737061,0,0,1.5768433,0,3.5219727v4.9559326C0,10.4231567,1.6737061,12,3.7383423,12h10.5233154
	C16.3262939,12,18,10.4231567,18,8.4779053V3.5219727C18,1.5768433,16.3262939,0,14.2616577,0z M11.7333984,6.2410889
	L6.8113403,8.4526978C6.6800537,8.5117798,6.5286865,8.4216309,6.5286865,8.28479V3.7231445
	c0-0.1387329,0.1553955-0.2288818,0.2868652-0.1660156l4.9220581,2.3499146
	C11.8840332,5.9768677,11.8814087,6.1746826,11.7333984,6.2410889z"/>
</svg>
