<?xml version="1.0" encoding="utf-8"?>
<!-- Generator: Adobe Illustrator 23.0.3, SVG Export Plug-In . SVG Version: 6.00 Build 0)  -->
<svg version="1.1" id="Layer_1" xmlns="http://www.w3.org/2000/svg" xmlns:xlink="http://www.w3.org/1999/xlink" x="0px" y="0px"
	 viewBox="0 0 100.0000153 29.9999943" style="enable-background:new 0 0 100.0000153 29.9999943;" xml:space="preserve">
<path d="M0.0009813,15.0382643c0.0006104,0.0177002,0.0019531,0.0354004,0.0037842,0.0529785
	c0.0006104,0.0056763,0.0007935,0.0114136,0.0015259,0.0170288c0.0029907,0.0239258,0.0075073,0.0476685,0.0127563,0.071167
	c0.0006104,0.0028076,0.0013428,0.0055542,0.0020142,0.0083008c0.032959,0.1415405,0.1049805,0.2744751,0.213501,0.3815308
	l14.3641357,14.2091074c0.3169556,0.3029175,0.8222046,0.2941895,1.128418-0.0193481
	c0.069397-0.071106,0.1219482-0.1520996,0.1590576-0.2380371c0.0004883-0.0010986,0.0010376-0.0021362,0.0015259-0.0032349
	c0.0091553-0.0214233,0.0171509-0.0431519,0.024292-0.0651245c0.0008545-0.0026245,0.0018921-0.005188,0.0027466-0.0078735
	c0.0062866-0.0201416,0.0115356-0.0404663,0.0161743-0.0609131c0.0010376-0.0046997,0.0023804-0.0093384,0.0033569-0.0140381
	c0.0037231-0.0180054,0.0064697-0.0361328,0.0089111-0.0543213c0.0010376-0.0073242,0.0023193-0.0146484,0.0031738-0.0219727
	c0.0015869-0.0151367,0.0022583-0.0302124,0.0029297-0.0453491c0.0005493-0.0105591,0.0014038-0.0210571,0.0015259-0.0316162
	c0.000061-0.0112915-0.0006714-0.022583-0.0010376-0.0338745c-0.0004883-0.0144043-0.0007935-0.0287476-0.0020752-0.0430908
	c-0.0005493-0.0065308-0.001709-0.0130005-0.0024414-0.0195313c-0.0021973-0.0189819-0.0045776-0.0379639-0.0081177-0.0567627
	c-0.0001221-0.0006714-0.0003662-0.0013428-0.0004883-0.0020142c-0.0279541-0.1459961-0.0974121-0.2858887-0.2095337-0.4007568
	L2.7244921,15.7997999h96.4776611c0.281189-0.000061,0.5283203-0.144104,0.6704712-0.3615112
	c0.0008545-0.0013428,0.0018311-0.0025635,0.0026855-0.0039063c0.0150757-0.0233154,0.0284424-0.0477295,0.0410156-0.0726318
	c0.0147095-0.0292358,0.0281372-0.0592041,0.0391846-0.0903931c0.0007935-0.0023193,0.0014038-0.0047607,0.0021973-0.0070801
	c0.0095215-0.027771,0.0172119-0.0563354,0.0235596-0.0853271c0.0040894-0.0185547,0.0075073-0.0372925,0.0102539-0.0562744
	c0.0045166-0.0316162,0.0078125-0.0635986,0.0084839-0.0963135c0.000061-0.003479-0.0002441-0.0071411-0.0002441-0.0106201
	c0.0003052-0.038269-0.0019531-0.0770874-0.0073853-0.1164551c-0.0032349-0.0233765-0.0073242-0.046875-0.0126953-0.0704956
	c-0.0045776-0.0203857-0.0101929-0.0408936-0.0164185-0.0614624c-0.0006104-0.0020142-0.0009766-0.0039673-0.0015869-0.0059814
	c-0.0036011-0.0115967-0.0082397-0.0232544-0.0123291-0.0349121c-0.0039063-0.0110474-0.0073242-0.0220337-0.0117188-0.0330811
	c-0.0631714-0.1589355-0.1766968-0.3201904-0.3519897-0.4724731H2.724431L15.7271166,1.360164
	c0.0200806-0.0198364,0.0388184-0.0407715,0.0565186-0.0623779c0.2951651-0.3492432,0.2388296-0.8939209-0.1778564-1.1685181
	c-0.3106689-0.2047119-0.7207642-0.161377-0.9891357,0.0952148c-0.0066528,0.0063477-0.0131836,0.0128174-0.0195923,0.0194092
	L0.2329149,14.4529982c-0.0005493,0.0005493-0.0010376,0.0011597-0.0015869,0.001709
	c-0.0141602,0.0141602-0.0274048,0.0292358-0.0404663,0.0443726c-0.00354,0.0041504-0.0074463,0.0079346-0.0109253,0.012085
	c-0.0563354,0.0682373-0.100708,0.1462402-0.1316528,0.2306519c-0.0036621,0.0099487-0.0073853,0.0198975-0.0106201,0.0299072
	c-0.0037231,0.0115967-0.006958,0.0233154-0.0101929,0.0351563c-0.0030518,0.0114136-0.0057983,0.0228271-0.0083618,0.0343628
	c-0.0023804,0.0107422-0.0048828,0.0214844-0.0068359,0.0324707c-0.0037231,0.0211792-0.0067139,0.0424194-0.008728,0.0637207
	c-0.0007324,0.0078735-0.0009155,0.0158691-0.0014038,0.0238647c-0.0010376,0.0162964-0.0015869,0.0325928-0.0015869,0.0488892
	c-0.000061,0.0050049-0.0006104,0.0098877-0.0005493,0.0148926C0.0001268,15.0295362,0.0007982,15.0338087,0.0009813,15.0382643z"/>
</svg>
