<?xml version="1.0" encoding="utf-8"?>
<!-- Generator: Adobe Illustrator 23.0.3, SVG Export Plug-In . SVG Version: 6.00 Build 0)  -->
<svg version="1.1" id="Layer_1" xmlns="http://www.w3.org/2000/svg" xmlns:xlink="http://www.w3.org/1999/xlink" x="0px" y="0px"
	 viewBox="0 0 16.9999924 10.0000086" style="enable-background:new 0 0 16.9999924 10.0000086;" xml:space="preserve">
<path d="M16.8076096,8.7752686l-7.8410635-8.56427C8.8430719,0.0758667,8.6751032,0,8.5000544,0
	S8.1571589,0.0760498,8.0335016,0.2109985l-7.841248,8.56427C-0.0645212,9.0558472-0.064094,9.5101318,0.1935965,9.7902832
	c0.2575684,0.2799072,0.6749268,0.2791748,0.9318848-0.0014648L8.5000544,1.734314l7.3745117,8.0548096
	c0.2569571,0.2805786,0.6740103,0.281311,0.9317007,0.0014038c0.1291504-0.1403809,0.1937256-0.3243408,0.1937256-0.5083618
	C16.9999924,9.0986938,16.9358444,8.9154663,16.8076096,8.7752686z"/>
</svg>
